<?xml version="1.0" standalone="no"?>
<!--suppress ALL -->
<!DOCTYPE svg PUBLIC "-//W3C//DTD SVG 20010904//EN"
        "http://www.w3.org/TR/2001/REC-SVG-20010904/DTD/svg10.dtd">
<svg version="1.0" xmlns="http://www.w3.org/2000/svg"
 width="16.000000pt" height="16.000000pt" viewBox="0 0 16.000000 16.000000"
 preserveAspectRatio="xMidYMid meet">
<metadata>
Created by potrace 1.11, written by Peter Selinger 2001-2013
</metadata>
<g transform="translate(0.000000,16.000000) scale(0.002282,-0.002282)"
fill="#000000" stroke="none">
<path d="M4923 5591 c7 -8 186 -188 399 -401 l387 -386 -852 -852 c-469 -469
-855 -852 -860 -852 -4 0 -319 312 -701 694 l-693 694 -1297 -1297 -1296
-1296 245 -245 245 -245 1053 1051 1052 1051 695 -698 695 -698 1102 1101
1101 1101 397 -397 c219 -218 399 -395 402 -392 8 7 6 2067 -2 2074 -4 4 -474
7 -1045 7 -903 0 -1037 -2 -1027 -14z"/>
</g>
</svg>
